[{
    "anonymous": false,
    "inputs": [{
        "indexed": true,
        "internalType": "address",
        "name": "borrower",
        "type": "address"
      },
      {
        "indexed": false,
        "internalType": "uint256",
        "name": "debt",
        "type": "uint256"
      },
      {
        "indexed": false,
        "internalType": "uint256",
        "name": "pBurned",
        "type": "uint256"
      }
    ],
    "name": "DebtDefaultExecuted",
    "type": "event"
  },
  {
    "anonymous": false,
    "inputs": [{
        "indexed": true,
        "internalType": "address",
        "name": "sender",
        "type": "address"
      },
      {
        "indexed": false,
        "internalType": "uint256",
        "name": "proposal",
        "type": "uint256"
      }
    ],
    "name": "DebtProposalCanceled",
    "type": "event"
  },
  {
    "anonymous": false,
    "inputs": [{
        "indexed": true,
        "internalType": "address",
        "name": "sender",
        "type": "address"
      },
      {
        "indexed": false,
        "internalType": "uint256",
        "name": "proposal",
        "type": "uint256"
      },
      {
        "indexed": false,
        "internalType": "uint256",
        "name": "lAmount",
        "type": "uint256"
      },
      {
        "indexed": false,
        "internalType": "uint256",
        "name": "interest",
        "type": "uint256"
      },
      {
        "indexed": false,
        "internalType": "bytes32",
        "name": "descriptionHash",
        "type": "bytes32"
      }
    ],
    "name": "DebtProposalCreated",
    "type": "event"
  },
  {
    "anonymous": false,
    "inputs": [{
        "indexed": true,
        "internalType": "address",
        "name": "sender",
        "type": "address"
      },
      {
        "indexed": false,
        "internalType": "uint256",
        "name": "proposal",
        "type": "uint256"
      },
      {
        "indexed": false,
        "internalType": "uint256",
        "name": "debt",
        "type": "uint256"
      },
      {
        "indexed": false,
        "internalType": "uint256",
        "name": "lAmount",
        "type": "uint256"
      }
    ],
    "name": "DebtProposalExecuted",
    "type": "event"
  },
  {
    "anonymous": false,
    "inputs": [{
        "indexed": true,
        "internalType": "address",
        "name": "previousOwner",
        "type": "address"
      },
      {
        "indexed": true,
        "internalType": "address",
        "name": "newOwner",
        "type": "address"
      }
    ],
    "name": "OwnershipTransferred",
    "type": "event"
  },
  {
    "anonymous": false,
    "inputs": [{
        "indexed": true,
        "internalType": "address",
        "name": "sender",
        "type": "address"
      },
      {
        "indexed": true,
        "internalType": "address",
        "name": "borrower",
        "type": "address"
      },
      {
        "indexed": false,
        "internalType": "uint256",
        "name": "proposal",
        "type": "uint256"
      },
      {
        "indexed": false,
        "internalType": "uint256",
        "name": "lAmount",
        "type": "uint256"
      },
      {
        "indexed": false,
        "internalType": "uint256",
        "name": "pAmount",
        "type": "uint256"
      }
    ],
    "name": "PledgeAdded",
    "type": "event"
  },
  {
    "anonymous": false,
    "inputs": [{
        "indexed": true,
        "internalType": "address",
        "name": "sender",
        "type": "address"
      },
      {
        "indexed": true,
        "internalType": "address",
        "name": "borrower",
        "type": "address"
      },
      {
        "indexed": false,
        "internalType": "uint256",
        "name": "proposal",
        "type": "uint256"
      },
      {
        "indexed": false,
        "internalType": "uint256",
        "name": "lAmount",
        "type": "uint256"
      },
      {
        "indexed": false,
        "internalType": "uint256",
        "name": "pAmount",
        "type": "uint256"
      }
    ],
    "name": "PledgeWithdrawn",
    "type": "event"
  },
  {
    "anonymous": false,
    "inputs": [{
      "indexed": false,
      "internalType": "address",
      "name": "newPool",
      "type": "address"
    }],
    "name": "PoolAddressChanged",
    "type": "event"
  },
  {
    "anonymous": false,
    "inputs": [{
        "indexed": true,
        "internalType": "address",
        "name": "sender",
        "type": "address"
      },
      {
        "indexed": false,
        "internalType": "uint256",
        "name": "debt",
        "type": "uint256"
      },
      {
        "indexed": false,
        "internalType": "uint256",
        "name": "lDebtLeft",
        "type": "uint256"
      },
      {
        "indexed": false,
        "internalType": "uint256",
        "name": "lFullPaymentAmount",
        "type": "uint256"
      },
      {
        "indexed": false,
        "internalType": "uint256",
        "name": "lInterestPaid",
        "type": "uint256"
      },
      {
        "indexed": false,
        "internalType": "uint256",
        "name": "pInterestPaid",
        "type": "uint256"
      },
      {
        "indexed": false,
        "internalType": "uint256",
        "name": "newlastPayment",
        "type": "uint256"
      }
    ],
    "name": "Repay",
    "type": "event"
  },
  {
    "anonymous": false,
    "inputs": [{
        "indexed": true,
        "internalType": "address",
        "name": "sender",
        "type": "address"
      },
      {
        "indexed": true,
        "internalType": "address",
        "name": "borrower",
        "type": "address"
      },
      {
        "indexed": false,
        "internalType": "uint256",
        "name": "proposal",
        "type": "uint256"
      },
      {
        "indexed": false,
        "internalType": "uint256",
        "name": "debt",
        "type": "uint256"
      },
      {
        "indexed": false,
        "internalType": "uint256",
        "name": "pAmount",
        "type": "uint256"
      }
    ],
    "name": "UnlockedPledgeWithdraw",
    "type": "event"
  },
  {
    "constant": true,
    "inputs": [],
    "name": "ANNUAL_SECONDS",
    "outputs": [{
      "internalType": "uint256",
      "name": "",
      "type": "uint256"
    }],
    "payable": false,
    "stateMutability": "view",
    "type": "function"
  },
  {
    "constant": true,
    "inputs": [],
    "name": "BORROWER_COLLATERAL_TO_FULL_COLLATERAL_MULTIPLIER",
    "outputs": [{
      "internalType": "uint256",
      "name": "",
      "type": "uint256"
    }],
    "payable": false,
    "stateMutability": "view",
    "type": "function"
  },
  {
    "constant": true,
    "inputs": [],
    "name": "BORROWER_COLLATERAL_TO_FULL_COLLATERAL_RATIO",
    "outputs": [{
      "internalType": "uint256",
      "name": "",
      "type": "uint256"
    }],
    "payable": false,
    "stateMutability": "view",
    "type": "function"
  },
  {
    "constant": true,
    "inputs": [],
    "name": "COLLATERAL_TO_DEBT_RATIO",
    "outputs": [{
      "internalType": "uint256",
      "name": "",
      "type": "uint256"
    }],
    "payable": false,
    "stateMutability": "view",
    "type": "function"
  },
  {
    "constant": true,
    "inputs": [],
    "name": "COLLATERAL_TO_DEBT_RATIO_MULTIPLIER",
    "outputs": [{
      "internalType": "uint256",
      "name": "",
      "type": "uint256"
    }],
    "payable": false,
    "stateMutability": "view",
    "type": "function"
  },
  {
    "constant": true,
    "inputs": [],
    "name": "DEBT_LOAD_MULTIPLIER",
    "outputs": [{
      "internalType": "uint256",
      "name": "",
      "type": "uint256"
    }],
    "payable": false,
    "stateMutability": "view",
    "type": "function"
  },
  {
    "constant": true,
    "inputs": [],
    "name": "DEBT_REPAY_DEADLINE_PERIOD",
    "outputs": [{
      "internalType": "uint256",
      "name": "",
      "type": "uint256"
    }],
    "payable": false,
    "stateMutability": "view",
    "type": "function"
  },
  {
    "constant": true,
    "inputs": [],
    "name": "INTEREST_MULTIPLIER",
    "outputs": [{
      "internalType": "uint256",
      "name": "",
      "type": "uint256"
    }],
    "payable": false,
    "stateMutability": "view",
    "type": "function"
  },
  {
    "constant": true,
    "inputs": [],
    "name": "MODULE_ACCESS",
    "outputs": [{
      "internalType": "string",
      "name": "",
      "type": "string"
    }],
    "payable": false,
    "stateMutability": "view",
    "type": "function"
  },
  {
    "constant": true,
    "inputs": [],
    "name": "MODULE_CURVE",
    "outputs": [{
      "internalType": "string",
      "name": "",
      "type": "string"
    }],
    "payable": false,
    "stateMutability": "view",
    "type": "function"
  },
  {
    "constant": true,
    "inputs": [],
    "name": "MODULE_FUNDS",
    "outputs": [{
      "internalType": "string",
      "name": "",
      "type": "string"
    }],
    "payable": false,
    "stateMutability": "view",
    "type": "function"
  },
  {
    "constant": true,
    "inputs": [],
    "name": "MODULE_LIQUIDITY",
    "outputs": [{
      "internalType": "string",
      "name": "",
      "type": "string"
    }],
    "payable": false,
    "stateMutability": "view",
    "type": "function"
  },
  {
    "constant": true,
    "inputs": [],
    "name": "MODULE_LOAN",
    "outputs": [{
      "internalType": "string",
      "name": "",
      "type": "string"
    }],
    "payable": false,
    "stateMutability": "view",
    "type": "function"
  },
  {
    "constant": true,
    "inputs": [],
    "name": "MODULE_LTOKEN",
    "outputs": [{
      "internalType": "string",
      "name": "",
      "type": "string"
    }],
    "payable": false,
    "stateMutability": "view",
    "type": "function"
  },
  {
    "constant": true,
    "inputs": [],
    "name": "MODULE_PTOKEN",
    "outputs": [{
      "internalType": "string",
      "name": "",
      "type": "string"
    }],
    "payable": false,
    "stateMutability": "view",
    "type": "function"
  },
  {
    "constant": true,
    "inputs": [],
    "name": "PLEDGE_PERCENT_MULTIPLIER",
    "outputs": [{
      "internalType": "uint256",
      "name": "",
      "type": "uint256"
    }],
    "payable": false,
    "stateMutability": "view",
    "type": "function"
  },
  {
    "constant": true,
    "inputs": [{
      "internalType": "address",
      "name": "",
      "type": "address"
    }],
    "name": "activeDebts",
    "outputs": [{
      "internalType": "uint256",
      "name": "",
      "type": "uint256"
    }],
    "payable": false,
    "stateMutability": "view",
    "type": "function"
  },
  {
    "constant": true,
    "inputs": [{
        "internalType": "address",
        "name": "",
        "type": "address"
      },
      {
        "internalType": "uint256",
        "name": "",
        "type": "uint256"
      }
    ],
    "name": "debtProposals",
    "outputs": [{
        "internalType": "uint256",
        "name": "lAmount",
        "type": "uint256"
      },
      {
        "internalType": "uint256",
        "name": "interest",
        "type": "uint256"
      },
      {
        "internalType": "bytes32",
        "name": "descriptionHash",
        "type": "bytes32"
      },
      {
        "internalType": "uint256",
        "name": "lCovered",
        "type": "uint256"
      },
      {
        "internalType": "uint256",
        "name": "pCollected",
        "type": "uint256"
      },
      {
        "internalType": "bool",
        "name": "executed",
        "type": "bool"
      }
    ],
    "payable": false,
    "stateMutability": "view",
    "type": "function"
  },
  {
    "constant": true,
    "inputs": [{
        "internalType": "address",
        "name": "",
        "type": "address"
      },
      {
        "internalType": "uint256",
        "name": "",
        "type": "uint256"
      }
    ],
    "name": "debts",
    "outputs": [{
        "internalType": "uint256",
        "name": "proposal",
        "type": "uint256"
      },
      {
        "internalType": "uint256",
        "name": "lAmount",
        "type": "uint256"
      },
      {
        "internalType": "uint256",
        "name": "lastPayment",
        "type": "uint256"
      },
      {
        "internalType": "uint256",
        "name": "pInterest",
        "type": "uint256"
      },
      {
        "internalType": "bool",
        "name": "defaultExecuted",
        "type": "bool"
      }
    ],
    "payable": false,
    "stateMutability": "view",
    "type": "function"
  },
  {
    "constant": true,
    "inputs": [{
      "internalType": "string",
      "name": "module",
      "type": "string"
    }],
    "name": "getModuleAddress",
    "outputs": [{
      "internalType": "address",
      "name": "",
      "type": "address"
    }],
    "payable": false,
    "stateMutability": "view",
    "type": "function"
  },
  {
    "constant": true,
    "inputs": [],
    "name": "isOwner",
    "outputs": [{
      "internalType": "bool",
      "name": "",
      "type": "bool"
    }],
    "payable": false,
    "stateMutability": "view",
    "type": "function"
  },
  {
    "constant": true,
    "inputs": [],
    "name": "limits",
    "outputs": [{
        "internalType": "uint256",
        "name": "lDebtAmountMin",
        "type": "uint256"
      },
      {
        "internalType": "uint256",
        "name": "debtInterestMin",
        "type": "uint256"
      },
      {
        "internalType": "uint256",
        "name": "pledgePercentMin",
        "type": "uint256"
      },
      {
        "internalType": "uint256",
        "name": "lMinPledgeMax",
        "type": "uint256"
      },
      {
        "internalType": "uint256",
        "name": "debtLoadMax",
        "type": "uint256"
      }
    ],
    "payable": false,
    "stateMutability": "view",
    "type": "function"
  },
  {
    "constant": true,
    "inputs": [],
    "name": "owner",
    "outputs": [{
      "internalType": "address",
      "name": "",
      "type": "address"
    }],
    "payable": false,
    "stateMutability": "view",
    "type": "function"
  },
  {
    "constant": true,
    "inputs": [],
    "name": "pool",
    "outputs": [{
      "internalType": "address",
      "name": "",
      "type": "address"
    }],
    "payable": false,
    "stateMutability": "view",
    "type": "function"
  },
  {
    "constant": false,
    "inputs": [],
    "name": "renounceOwnership",
    "outputs": [],
    "payable": false,
    "stateMutability": "nonpayable",
    "type": "function"
  },
  {
    "constant": false,
    "inputs": [{
      "internalType": "address",
      "name": "_pool",
      "type": "address"
    }],
    "name": "setPool",
    "outputs": [],
    "payable": false,
    "stateMutability": "nonpayable",
    "type": "function"
  },
  {
    "constant": false,
    "inputs": [{
      "internalType": "address",
      "name": "newOwner",
      "type": "address"
    }],
    "name": "transferOwnership",
    "outputs": [],
    "payable": false,
    "stateMutability": "nonpayable",
    "type": "function"
  },
  {
    "constant": false,
    "inputs": [],
    "name": "initialize",
    "outputs": [],
    "payable": false,
    "stateMutability": "nonpayable",
    "type": "function"
  },
  {
    "constant": false,
    "inputs": [{
      "internalType": "address",
      "name": "_pool",
      "type": "address"
    }],
    "name": "initialize",
    "outputs": [],
    "payable": false,
    "stateMutability": "nonpayable",
    "type": "function"
  },
  {
    "constant": false,
    "inputs": [{
        "internalType": "uint256",
        "name": "debtLAmount",
        "type": "uint256"
      },
      {
        "internalType": "uint256",
        "name": "interest",
        "type": "uint256"
      },
      {
        "internalType": "uint256",
        "name": "pAmountMax",
        "type": "uint256"
      },
      {
        "internalType": "bytes32",
        "name": "descriptionHash",
        "type": "bytes32"
      }
    ],
    "name": "createDebtProposal",
    "outputs": [{
      "internalType": "uint256",
      "name": "",
      "type": "uint256"
    }],
    "payable": false,
    "stateMutability": "nonpayable",
    "type": "function"
  },
  {
    "constant": false,
    "inputs": [{
        "internalType": "address",
        "name": "borrower",
        "type": "address"
      },
      {
        "internalType": "uint256",
        "name": "proposal",
        "type": "uint256"
      },
      {
        "internalType": "uint256",
        "name": "pAmount",
        "type": "uint256"
      },
      {
        "internalType": "uint256",
        "name": "lAmountMin",
        "type": "uint256"
      }
    ],
    "name": "addPledge",
    "outputs": [],
    "payable": false,
    "stateMutability": "nonpayable",
    "type": "function"
  },
  {
    "constant": false,
    "inputs": [{
        "internalType": "address",
        "name": "borrower",
        "type": "address"
      },
      {
        "internalType": "uint256",
        "name": "proposal",
        "type": "uint256"
      },
      {
        "internalType": "uint256",
        "name": "pAmount",
        "type": "uint256"
      }
    ],
    "name": "withdrawPledge",
    "outputs": [],
    "payable": false,
    "stateMutability": "nonpayable",
    "type": "function"
  },
  {
    "constant": false,
    "inputs": [{
      "internalType": "uint256",
      "name": "proposal",
      "type": "uint256"
    }],
    "name": "cancelDebtProposal",
    "outputs": [],
    "payable": false,
    "stateMutability": "nonpayable",
    "type": "function"
  },
  {
    "constant": false,
    "inputs": [{
      "internalType": "uint256",
      "name": "proposal",
      "type": "uint256"
    }],
    "name": "executeDebtProposal",
    "outputs": [{
      "internalType": "uint256",
      "name": "",
      "type": "uint256"
    }],
    "payable": false,
    "stateMutability": "nonpayable",
    "type": "function"
  },
  {
    "constant": false,
    "inputs": [{
        "internalType": "uint256",
        "name": "debt",
        "type": "uint256"
      },
      {
        "internalType": "uint256",
        "name": "lAmount",
        "type": "uint256"
      }
    ],
    "name": "repay",
    "outputs": [],
    "payable": false,
    "stateMutability": "nonpayable",
    "type": "function"
  },
  {
    "constant": false,
    "inputs": [{
        "internalType": "uint256",
        "name": "debt",
        "type": "uint256"
      },
      {
        "internalType": "uint256",
        "name": "pAmount",
        "type": "uint256"
      },
      {
        "internalType": "uint256",
        "name": "lAmountMin",
        "type": "uint256"
      }
    ],
    "name": "repayPTK",
    "outputs": [],
    "payable": false,
    "stateMutability": "nonpayable",
    "type": "function"
  },
  {
    "constant": false,
    "inputs": [{
      "internalType": "address",
      "name": "borrower",
      "type": "address"
    }],
    "name": "repayAllInterest",
    "outputs": [],
    "payable": false,
    "stateMutability": "nonpayable",
    "type": "function"
  },
  {
    "constant": false,
    "inputs": [{
        "internalType": "address",
        "name": "borrower",
        "type": "address"
      },
      {
        "internalType": "uint256",
        "name": "debt",
        "type": "uint256"
      }
    ],
    "name": "executeDebtDefault",
    "outputs": [],
    "payable": false,
    "stateMutability": "nonpayable",
    "type": "function"
  },
  {
    "constant": false,
    "inputs": [{
        "internalType": "address",
        "name": "borrower",
        "type": "address"
      },
      {
        "internalType": "uint256",
        "name": "debt",
        "type": "uint256"
      }
    ],
    "name": "withdrawUnlockedPledge",
    "outputs": [],
    "payable": false,
    "stateMutability": "nonpayable",
    "type": "function"
  },
  {
    "constant": false,
    "inputs": [{
        "internalType": "uint256",
        "name": "lDebtAmountMin",
        "type": "uint256"
      },
      {
        "internalType": "uint256",
        "name": "debtInterestMin",
        "type": "uint256"
      },
      {
        "internalType": "uint256",
        "name": "pledgePercentMin",
        "type": "uint256"
      },
      {
        "internalType": "uint256",
        "name": "lMinPledgeMax",
        "type": "uint256"
      },
      {
        "internalType": "uint256",
        "name": "debtLoadMax",
        "type": "uint256"
      }
    ],
    "name": "setLimits",
    "outputs": [],
    "payable": false,
    "stateMutability": "nonpayable",
    "type": "function"
  },
  {
    "constant": false,
    "inputs": [{
        "internalType": "address",
        "name": "borrower",
        "type": "address"
      },
      {
        "internalType": "uint256",
        "name": "debt",
        "type": "uint256"
      },
      {
        "internalType": "uint256",
        "name": "newDate",
        "type": "uint256"
      }
    ],
    "name": "__changeDebtLastPaymentDate",
    "outputs": [],
    "payable": false,
    "stateMutability": "nonpayable",
    "type": "function"
  },
  {
    "constant": true,
    "inputs": [{
        "internalType": "address",
        "name": "borrower",
        "type": "address"
      },
      {
        "internalType": "uint256",
        "name": "debt",
        "type": "uint256"
      }
    ],
    "name": "isDebtDefaultTimeReached",
    "outputs": [{
      "internalType": "bool",
      "name": "",
      "type": "bool"
    }],
    "payable": false,
    "stateMutability": "view",
    "type": "function"
  },
  {
    "constant": true,
    "inputs": [{
        "internalType": "address",
        "name": "borrower",
        "type": "address"
      },
      {
        "internalType": "uint256",
        "name": "debt",
        "type": "uint256"
      },
      {
        "internalType": "address",
        "name": "supporter",
        "type": "address"
      }
    ],
    "name": "calculatePledgeInfo",
    "outputs": [{
        "internalType": "uint256",
        "name": "pLocked",
        "type": "uint256"
      },
      {
        "internalType": "uint256",
        "name": "pUnlocked",
        "type": "uint256"
      },
      {
        "internalType": "uint256",
        "name": "pInterest",
        "type": "uint256"
      },
      {
        "internalType": "uint256",
        "name": "pWithdrawn",
        "type": "uint256"
      }
    ],
    "payable": false,
    "stateMutability": "view",
    "type": "function"
  },
  {
    "constant": true,
    "inputs": [{
        "internalType": "address",
        "name": "borrower",
        "type": "address"
      },
      {
        "internalType": "uint256",
        "name": "proposal",
        "type": "uint256"
      }
    ],
    "name": "getRequiredPledge",
    "outputs": [{
      "internalType": "uint256",
      "name": "",
      "type": "uint256"
    }],
    "payable": false,
    "stateMutability": "view",
    "type": "function"
  },
  {
    "constant": true,
    "inputs": [{
        "internalType": "address",
        "name": "borrower",
        "type": "address"
      },
      {
        "internalType": "uint256",
        "name": "proposal",
        "type": "uint256"
      }
    ],
    "name": "getPledgeRequirements",
    "outputs": [{
        "internalType": "uint256",
        "name": "minLPledge",
        "type": "uint256"
      },
      {
        "internalType": "uint256",
        "name": "maxLPledge",
        "type": "uint256"
      }
    ],
    "payable": false,
    "stateMutability": "view",
    "type": "function"
  },
  {
    "constant": true,
    "inputs": [{
        "internalType": "address",
        "name": "borrower",
        "type": "address"
      },
      {
        "internalType": "uint256",
        "name": "debt",
        "type": "uint256"
      }
    ],
    "name": "getDebtRequiredPayments",
    "outputs": [{
        "internalType": "uint256",
        "name": "",
        "type": "uint256"
      },
      {
        "internalType": "uint256",
        "name": "",
        "type": "uint256"
      }
    ],
    "payable": false,
    "stateMutability": "view",
    "type": "function"
  },
  {
    "constant": true,
    "inputs": [{
      "internalType": "address",
      "name": "borrower",
      "type": "address"
    }],
    "name": "hasActiveDebts",
    "outputs": [{
      "internalType": "bool",
      "name": "",
      "type": "bool"
    }],
    "payable": false,
    "stateMutability": "view",
    "type": "function"
  },
  {
    "constant": true,
    "inputs": [{
      "internalType": "address",
      "name": "borrower",
      "type": "address"
    }],
    "name": "getUnpaidInterest",
    "outputs": [{
        "internalType": "uint256",
        "name": "totalLInterest",
        "type": "uint256"
      },
      {
        "internalType": "uint256",
        "name": "totalLInterestPerSecond",
        "type": "uint256"
      }
    ],
    "payable": false,
    "stateMutability": "view",
    "type": "function"
  },
  {
    "constant": true,
    "inputs": [],
    "name": "totalLDebts",
    "outputs": [{
      "internalType": "uint256",
      "name": "",
      "type": "uint256"
    }],
    "payable": false,
    "stateMutability": "view",
    "type": "function"
  },
  {
    "constant": true,
    "inputs": [],
    "name": "totalLProposals",
    "outputs": [{
      "internalType": "uint256",
      "name": "",
      "type": "uint256"
    }],
    "payable": false,
    "stateMutability": "view",
    "type": "function"
  },
  {
    "constant": true,
    "inputs": [{
        "internalType": "uint256",
        "name": "debtLAmount",
        "type": "uint256"
      },
      {
        "internalType": "uint256",
        "name": "interest",
        "type": "uint256"
      },
      {
        "internalType": "uint256",
        "name": "prevPayment",
        "type": "uint256"
      },
      {
        "internalType": "uint256",
        "name": "currentPayment",
        "type": "uint256"
      }
    ],
    "name": "calculateInterestPayment",
    "outputs": [{
      "internalType": "uint256",
      "name": "",
      "type": "uint256"
    }],
    "payable": false,
    "stateMutability": "pure",
    "type": "function"
  }
]